,x,y_fit,conf_hi,conf_lo
0,0.0,324.22042852006086,348.88493971232197,299.55591732779976
1,33.40816326530612,322.39454427346624,347.9862462958476,296.8028422510848
2,66.81632653061224,320.56866002687156,347.0875528793733,294.0497671743699
3,100.22448979591837,318.74277578027693,346.1888594628989,291.29669209765495
4,133.6326530612245,316.9168915336823,345.29016604642453,288.54361702094
5,167.0408163265306,315.0910072870877,344.3914726299502,285.79054194422514
6,200.44897959183675,313.265123040493,343.49277921347584,283.0374668675102
7,233.85714285714286,311.43923879389837,342.59408579700147,280.28439179079527
8,267.265306122449,309.61335454730374,341.6953923805271,277.53131671408033
9,300.6734693877551,307.78747030070906,340.7966989640528,274.7782416373654
10,334.0816326530612,305.96158605411443,339.8980055475784,272.02516656065046
11,367.48979591836735,304.1357018075198,338.99931213110403,269.2720914839355
12,400.8979591836735,302.3098175609251,338.1006187146297,266.5190164072206
13,434.3061224489796,300.4839333143305,337.20192529815534,263.7659413305057
14,467.7142857142857,298.6580490677359,336.303231881681,261.0128662537908
15,501.1224489795918,296.83216482114125,335.40453846520666,258.25979117707584
16,534.530612244898,295.00628057454657,334.5058450487323,255.5067161003609
17,567.9387755102041,293.18039632795194,333.6071516322579,252.75364102364597
18,601.3469387755102,291.3545120813573,332.7084582157836,250.00056594693103
19,634.7551020408163,289.5286278347627,331.8097647993092,247.24749087021613
20,668.1632653061224,287.702743588168,330.91107138283485,244.4944157935012
21,701.5714285714286,285.8768593415734,330.01237796636053,241.74134071678625
22,734.9795918367347,284.05097509497875,329.11368454988616,238.98826564007132
23,768.3877551020408,282.22509084838407,328.2149911334118,236.2351905633564
24,801.795918367347,280.39920660178944,327.3162977169374,233.48211548664148
25,835.204081632653,278.5733223551948,326.4176043004631,230.72904040992654
26,868.6122448979592,276.74743810860014,325.5189108839887,227.9759653332116
27,902.0204081632653,274.9215538620055,324.62021746751435,225.22289025649667
28,935.4285714285714,273.0956696154109,323.72152405104003,222.46981517978173
29,968.8367346938776,271.26978536881626,322.82283063456566,219.71674010306683
30,1002.2448979591836,269.4439011222216,321.9241372180913,216.96366502635192
31,1035.6530612244899,267.61801687562695,321.025443801617,214.21058994963695
32,1069.061224489796,265.7921326290323,320.1267503851426,211.45751487292205
33,1102.469387755102,263.9662483824377,319.2280569686682,208.7044397962071
34,1135.8775510204082,262.140364135843,318.32936355219385,205.95136471949218
35,1169.2857142857142,260.3144798892484,317.43067013571954,203.19828964277724
36,1202.6938775510205,258.48859564265376,316.53197671924516,200.4452145660623
37,1236.1020408163265,256.6627113960591,315.6332833027708,197.6921394893474
38,1269.5102040816325,254.83682714946445,314.7345898862965,194.9390644126325
39,1302.9183673469388,253.01094290286983,313.8358964698221,192.18598933591755
40,1336.3265306122448,251.18505865627517,312.93720305334773,189.43291425920262
41,1369.734693877551,249.35917440968052,312.0385096368734,186.67983918248768
42,1403.142857142857,247.5332901630859,311.13981622039904,183.92676410577275
43,1436.5510204081631,245.70740591649127,310.24112280392467,181.1736890290578
44,1469.9591836734694,243.88152166989659,309.34242938745035,178.42061395234288
45,1503.3673469387754,242.05563742330196,308.443735970976,175.66753887562797
46,1536.7755102040817,240.22975317670733,307.5450425545016,172.91446379891303
47,1570.1836734693877,238.40386893011268,306.6463491380273,170.1613887221981
48,1603.591836734694,236.57798468351803,305.7476557215529,167.40831364548316
49,1637.0,234.7521004369234,304.84896230507854,164.65523856876825
