,x,y_fit,conf_hi,conf_lo
0,0.0,0.0,0.0,0.0
1,775294.3455102041,12297.98922840368,13235.37787603808,11360.60058076928
2,1550588.6910204082,24595.97845680736,26470.75575207616,22721.20116153856
3,2325883.036530612,36893.967685211035,39706.133628114236,34081.80174230784
4,3101177.3820408164,49191.95691361472,52941.51150415232,45442.40232307712
5,3876471.7275510207,61489.9461420184,66176.8893801904,56803.002903846405
6,4651766.073061224,73787.93537042207,79412.26725622847,68163.60348461568
7,5427060.418571428,86085.92459882576,92647.64513226655,79524.20406538495
8,6202354.764081633,98383.91382722944,105883.02300830463,90884.80464615424
9,6977649.109591837,110681.90305563313,119118.40088434271,102245.40522692353
10,7752943.455102041,122979.8922840368,132353.7787603808,113606.00580769281
11,8528237.800612245,135277.88151244048,145589.15663641886,124966.60638846208
12,9303532.146122448,147575.87074084414,158824.53451245694,136327.20696923137
13,10078826.491632653,159873.85996924783,172059.91238849502,147687.80755000064
14,10854120.837142857,172171.84919765152,185295.2902645331,159048.4081307699
15,11629415.182653062,184469.8384260552,198530.66814057122,170409.0087115392
16,12404709.528163265,196767.82765445887,211766.04601660927,181769.60929230848
17,13180003.873673469,209065.81688286253,225001.42389264735,193130.20987307775
18,13955298.219183674,221363.80611126625,238236.80176868543,204490.81045384705
19,14730592.564693877,233661.79533966992,251472.1796447235,215851.41103461632
20,15505886.910204083,245959.7845680736,264707.5575207616,227212.01161538562
21,16281181.255714286,258257.7737964773,277942.93539679964,238572.6121961549
22,17056475.60122449,270555.76302488096,291178.3132728377,249933.21277692416
23,17831769.946734693,282853.7522532846,304413.6911488758,261293.81335769343
24,18607064.292244896,295151.7414816883,317649.0690249139,272654.41393846273
25,19382358.637755103,307449.730710092,330884.446900952,284015.01451923203
26,20157652.983265307,319747.71993849566,344119.82477699005,295375.6151000013
27,20932947.32877551,332045.7091668994,357355.20265302813,306736.2156807706
28,21708241.674285714,344343.69839530304,370590.5805290662,318096.8162615398
29,22483536.019795917,356641.6876237067,383825.9584051043,329457.4168423091
30,23258830.365306124,368939.6768521104,397061.33628114243,340818.0174230784
31,24034124.710816327,381237.6660805141,410296.71415718045,352178.6180038477
32,24809419.05632653,393535.65530891775,423532.09203321853,363539.21858461696
33,25584713.401836734,405833.6445373214,436767.4699092566,374899.81916538626
34,26360007.747346938,418131.63376572507,450002.8477852947,386260.4197461555
35,27135302.092857145,430429.62299412885,463238.2256613328,397621.02032692486
36,27910596.43836735,442727.6122225325,476473.60353737086,408981.6209076941
37,28685890.78387755,455025.60145093617,489708.98141340894,420342.2214884634
38,29461185.129387755,467323.59067933983,502944.359289447,431702.82206923264
39,30236479.47489796,479621.5799077435,516179.7371654851,443063.42265000194
40,31011773.820408165,491919.5691361472,529415.1150415232,454424.02323077124
41,31787068.16591837,504217.5583645509,542650.4929175613,465784.62381154054
42,32562362.511428572,516515.5475929546,555885.8707935993,477145.2243923098
43,33337656.856938776,528813.5368213583,569121.2486696374,488505.8249730791
44,34112951.20244898,541111.5260497619,582356.6265456754,499866.4255538483
45,34888245.547959186,553409.5152781656,595592.0044217136,511227.0261346177
46,35663539.893469386,565707.5045065692,608827.3822977516,522587.62671538687
47,36438834.23897959,578005.493734973,622062.7601737897,533948.2272961562
48,37214128.58448979,590303.4829633766,635298.1380498278,545308.8278769255
49,37989422.93,602601.4721917803,648533.5159258659,556669.4284576947
