,x,y_fit,conf_hi,conf_lo
0,0.0,0.0,0.0,0.0
1,191326.51775510208,3328.6490139944926,3677.175424952265,2980.1226030367206
2,382653.03551020415,6657.298027988985,7354.35084990453,5960.245206073441
3,573979.5532653062,9985.947041983478,11031.526274856795,8940.367809110161
4,765306.0710204083,13314.59605597797,14708.70169980906,11920.490412146883
5,956632.5887755104,16643.245069972465,18385.877124761326,14900.613015183602
6,1147959.1065306123,19971.894083966956,22063.05254971359,17880.735618220322
7,1339285.6242857145,23300.543097961447,25740.227974665853,20860.858221257044
8,1530612.1420408166,26629.19211195594,29417.40339961812,23840.980824293765
9,1721938.6597959187,29957.841125950436,33094.57882457039,26821.103427330483
10,1913265.1775510209,33286.49013994493,36771.75424952265,29801.226030367205
11,2104591.695306123,36615.13915393942,40448.929674474915,32781.348633403926
12,2295918.2130612247,39943.78816793391,44126.10509942718,35761.471236440644
13,2487244.730816327,43272.437181928406,47803.28052437944,38741.59383947737
14,2678571.248571429,46601.08619592289,51480.45594933171,41721.71644251409
15,2869897.7663265313,49929.735209917395,55157.63137428398,44701.83904555081
16,3061224.284081633,53258.38422391188,58834.80679923624,47681.96164858753
17,3252550.801836735,56587.03323790638,62511.982224188505,50662.08425162424
18,3443877.3195918375,59915.68225190087,66189.15764914078,53642.206854660966
19,3635203.8373469394,63244.33126589536,69866.33307409304,56622.329457697684
20,3826530.3551020417,66572.98027988986,73543.5084990453,59602.45206073441
21,4017856.8728571436,69901.62929388435,77220.68392399757,62582.57466377113
22,4209183.390612246,73230.27830787883,80897.85934894983,65562.69726680785
23,4400509.908367348,76558.92732187333,84575.0347739021,68542.81986984458
24,4591836.426122449,79887.57633586782,88252.21019885436,71522.94247288129
25,4783162.943877552,83216.22534986232,91929.38562380662,74503.06507591801
26,4974489.461632654,86544.87436385681,95606.56104875889,77483.18767895474
27,5165815.979387756,89873.5233778513,99283.73647371116,80463.31028199146
28,5357142.497142858,93202.17239184579,102960.91189866341,83443.43288502817
29,5548469.01489796,96530.8214058403,106638.08732361569,86423.5554880649
30,5739795.532653063,99859.47041983479,110315.26274856795,89403.67809110162
31,5931122.050408164,103188.11943382927,113992.4381735202,92383.80069413834
32,6122448.568163266,106516.76844782376,117669.61359847248,95363.92329717506
33,6313775.085918369,109845.41746181826,121346.78902342475,98344.04590021179
34,6505101.60367347,113174.06647581275,125023.96444837701,101324.16850324848
35,6696428.121428573,116502.71548980725,128701.13987332927,104304.2911062852
36,6887754.639183675,119831.36450380174,132378.31529828155,107284.41370932193
37,7079081.156938776,123160.01351779622,136055.4907232338,110264.53631235864
38,7270407.674693879,126488.66253179072,139732.66614818608,113244.65891539537
39,7461734.192448981,129817.31154578523,143409.84157313834,116224.7815184321
40,7653060.7102040835,133145.96055977972,147087.0169980906,119204.90412146882
41,7844387.227959185,136474.60957377419,150764.19242304287,122185.02672450553
42,8035713.745714287,139803.2585877687,154441.36784799513,125165.14932754225
43,8227040.26346939,143131.9076017632,158118.5432729474,128145.27193057898
44,8418366.781224491,146460.55661575767,161795.71869789966,131125.3945336157
45,8609693.298979593,149789.20562975216,165472.89412285193,134105.51713665243
46,8801019.816734696,153117.85464374666,169150.0695478042,137085.63973968916
47,8992346.334489798,156446.50365774118,172827.24497275648,140065.76234272588
48,9183672.852244899,159775.15267173565,176504.42039770872,143045.88494576258
49,9374999.370000001,163103.80168573014,180181.59582266098,146026.0075487993
